{
    "words": [
        "array",
        "arrays",
        "art",
        "arts",
        "bag",
        "bee",
        "bog",
        "dog",
        "fall",
        "fast",
        "fat",
        "fell",
        "fig",
        "fill",
        "fist",
        "gap",
        "hello",
        "hoop",
        "jack",
        "job",
        "jog",
        "keg",
        "kick",
        "lift",
        "lifts",
        "lire",
        "list",
        "load",
        "loaf",
        "loan",
        "loft",
        "log",
        "lost",
        "lure",
        "lust",
        "man",
        "mic",
        "mice",
        "milk",
        "opal",
        "pan",
        "pee",
        "pin",
        "polk",
        "poo",
        "pop",
        "rant",
        "rat",
        "rats",
        "rent",
        "rest",
        "rust",
        "sat",
        "soft",
        "sort",
        "soy",
        "start",
        "starts",
        "street",
        "tar",
        "tart",
        "tarts",
        "toy",
        "toys",
        "tray",
        "trays"
    ]
}